V1,V2,R
Malic_Acid,Flavanoids,-0.41100658761426284
Malic_Acid,Hue,-0.561295688664945
Malic_Acid,Customer_Segment,0.4377762048410648
Ash,Ash_Alcanity,0.44336718655231083
Ash_Alcanity,Proline,-0.440596931282162
Ash_Alcanity,Customer_Segment,0.5178591098214518
Total_Phenols,Flavanoids,0.8645635000951144
Total_Phenols,Nonflavanoid_Phenols,-0.44993530093522005
Total_Phenols,Proanthocyanins,0.6124130837800362
Total_Phenols,Hue,0.4336813352137758
Total_Phenols,OD280,0.6999493647911865
Total_Phenols,Proline,0.4981148796420984
Total_Phenols,Customer_Segment,-0.7191633405539714
Flavanoids,Nonflavanoid_Phenols,-0.5378996119051982
Flavanoids,Proanthocyanins,0.652691768607515
Flavanoids,Hue,0.5434785664899893
Flavanoids,OD280,0.7871939018669512
Flavanoids,Proline,0.4941931272043733
Flavanoids,Customer_Segment,-0.8474975401417579
Nonflavanoid_Phenols,OD280,-0.5032695960789116
Nonflavanoid_Phenols,Customer_Segment,0.48910915886069084
Proanthocyanins,OD280,0.5190670956825233
Proanthocyanins,Customer_Segment,-0.4991298238591703
Color_Intensity,Hue,-0.5218131932287576
Color_Intensity,OD280,-0.4288149418276316
Hue,OD280,0.5654682931826593
Hue,Customer_Segment,-0.6173692102858322
OD280,Customer_Segment,-0.7882295886876629
Proline,Customer_Segment,-0.6337167849870337
